{
  "extends": [
    "tslint:recommended",
    "tslint-react",
    "tslint-config-prettier"
  ],
  "rulesDirectory": [
    "tslint-plugin-prettier"
  ],
  "rules": {
    "prettier": true,
    "interface-name": false
  },
  "linterOptions": {
    "exclude": [
      "node_modules",
      "src/serviceWorker.ts"
    ]
  }
}